[
  {
    "model": "emenu.dish",
    "pk": 1,
    "fields": {
      "created_at": "2018-05-26T15:00:24.953Z",
      "updated_at": "2018-05-29T16:06:33.651Z",
      "name_en": "Hamburger",
      "name_pl": "Hamburger",
      "description_en": "Hamburger is a great dish!",
      "description_pl": "Hamburger jest wspnia\u0142ym daniem!",
      "is_active": true,
      "is_vegetarian": true,
      "preparation_time": 5,
      "image": "/images/no-image.png",
      "category": 1
    }
  },
  {
    "model": "emenu.dish",
    "pk": 2,
    "fields": {
      "created_at": "2018-05-26T15:20:00.473Z",
      "updated_at": "2018-05-26T15:20:26.658Z",
      "name": "Cheeseburger",
      "name_en": "Cheeseburger",
      "name_pl": "Cheeseburger",
      "is_active": true,
      "is_vegetarian": true,
      "preparation_time": 5,
      "image": "/images/no-image.png",
      "category": 1
    }
  },
  {
    "model": "emenu.dish",
    "pk": 3,
    "fields": {
      "created_at": "2018-05-26T15:20:00.473Z",
      "updated_at": "2018-05-26T15:20:26.658Z",
      "name_en": "Vegeburger",
      "name_pl": "Vegeburger",
      "is_active": true,
      "is_vegetarian": true,
      "preparation_time": 5,
      "image": "/images/no-image.png",
      "category": 1
    }
  },
  {
    "model": "emenu.dish",
    "pk": 4,
    "fields": {
      "created_at": "2018-05-28T01:01:28.133Z",
      "updated_at": "2018-05-29T12:26:19.589Z",
      "name_en": "Boiled Potato's",
      "name_pl": "Gotowane Ziemniaki",
      "is_active": true,
      "is_vegetarian": true,
      "preparation_time": 10,
      "image": "/images/no-image.png"
    }
  },
  {
    "model": "emenu.dish",
    "pk": 5,
    "fields": {
      "created_at": "2018-05-29T11:39:57.901Z",
      "updated_at": "2018-05-29T15:16:07.258Z",
      "name_en": "Grilled Potatos",
      "name_pl": "Grillowane Ziemniaki",
      "is_active": true,
      "is_vegetarian": true,
      "preparation_time": 10,
      "image": "/images/no-image.png"
    }
  },
  {
    "model": "emenu.dish",
    "pk": 6,
    "fields": {
      "created_at": "2018-05-29T11:40:43.555Z",
      "updated_at": "2018-05-29T11:40:43.555Z",
      "name_en": "Zurek",
      "name_pl": "\u017burek",
      "is_active": true,
      "is_vegetarian": true,
      "preparation_time": 10,
      "image": "/images/no-image.png",
      "category": 2
    }
  },
  {
    "model": "emenu.dish",
    "pk": 7,
    "fields": {
      "created_at": "2018-05-26T15:21:54.314Z",
      "updated_at": "2018-05-26T15:26:01.913Z",
      "name_en": "Tomato soup",
      "name_pl": "Zupa Pomidorowa",
      "is_active": true,
      "is_vegetarian": true,
      "preparation_time": 10,
      "image": "/images/no-image.png",
      "category": 2
    }
  }
]