[
  {
    "model": "emenu.price",
    "pk": 1,
    "fields": {
      "dish": 1,
      "currency": 1,
      "price": "10.00"
    }
  },
  {
    "model": "emenu.price",
    "pk": 2,
    "fields": {
      "dish": 1,
      "currency": 2,
      "price": "3.00"
    }
  },
  {
    "model": "emenu.price",
    "pk": 3,
    "fields": {
      "dish": 2,
      "currency": 1,
      "price": "8.00"
    }
  },
  {
    "model": "emenu.price",
    "pk": 4,
    "fields": {
      "dish": 2,
      "currency": 2,
      "price": "2.00"
    }
  },
  {
    "model": "emenu.price",
    "pk": 5,
    "fields": {
      "dish": 3,
      "currency": 1,
      "price": "8.00"
    }
  },
  {
    "model": "emenu.price",
    "pk": 6,
    "fields": {
      "dish": 3,
      "currency": 2,
      "price": "2.00"
    }
  },
  {
    "model": "emenu.price",
    "pk": 7,
    "fields": {
      "dish": 4,
      "currency": 1,
      "price": "11.00"
    }
  },
  {
    "model": "emenu.price",
    "pk": 8,
    "fields": {
      "dish": 5,
      "currency": 1,
      "price": "33.00"
    }
  }
]